<svg width="47" height="46" viewBox="0 0 47 46" fill="none" xmlns="http://www.w3.org/2000/svg">
<path d="M12.5598 7.12932C14.5285 7.12932 16.1244 5.53337 16.1244 3.56466C16.1244 1.59595 14.5285 0 12.5598 0C10.5911 0 8.99512 1.59595 8.99512 3.56466C8.99512 5.53337 10.5911 7.12932 12.5598 7.12932Z" fill="white"/>
<path d="M36.4699 8.79729C38.4386 8.79729 40.0346 7.20134 40.0346 5.23263C40.0346 3.26392 38.4386 1.66797 36.4699 1.66797C34.5012 1.66797 32.9053 3.26392 32.9053 5.23263C32.9053 7.20134 34.5012 8.79729 36.4699 8.79729Z" fill="white"/>
<path d="M43.3474 33.1342C45.3161 33.1342 46.912 31.5383 46.912 29.5695C46.912 27.6008 45.3161 26.0049 43.3474 26.0049C41.3787 26.0049 39.7827 27.6008 39.7827 29.5695C39.7827 31.5383 41.3787 33.1342 43.3474 33.1342Z" fill="white"/>
<path d="M22.323 45.9999C24.2917 45.9999 25.8876 44.404 25.8876 42.4353C25.8876 40.4666 24.2917 38.8706 22.323 38.8706C20.3543 38.8706 18.7583 40.4666 18.7583 42.4353C18.7583 44.404 20.3543 45.9999 22.323 45.9999Z" fill="white"/>
<path d="M24.2848 17.6615C24.2848 18.2386 24.2944 18.8158 24.2848 19.3929C24.2848 19.5853 24.4252 19.8969 24.1174 19.9565C23.852 20.0085 23.7827 19.7218 23.6846 19.5256C21.9533 16.0841 21.6243 12.5425 22.9517 8.8932C23.6885 6.86944 24.9504 5.21312 26.5817 3.82611C27.4398 3.10025 28.5363 2.71785 29.6597 2.75267C31.1544 2.76614 31.9316 3.45291 32.2086 4.90917C32.3017 5.47374 32.4243 6.03303 32.5761 6.58473C33.1032 8.31608 34.4805 9.35105 36.2542 9.38183C39.3091 9.43761 40.0093 10.3091 39.4149 13.3235C39.1956 14.4354 38.9359 14.5913 37.8759 14.2527C36.3852 13.7764 34.8022 13.6636 33.259 13.9237C32.0336 14.1161 31.9124 14.0065 31.7816 12.756C31.6937 11.7004 31.3497 10.6822 30.7793 9.78966C29.6058 7.98905 27.7013 7.88709 26.3547 9.57035C25.214 10.9901 24.8446 12.6964 24.5291 14.4278C24.3217 15.4924 24.2397 16.5778 24.2848 17.6615Z" fill="white"/>
<path d="M19.718 20.5013C15.2549 20.5897 11.7807 18.691 9.14709 15.1687C8.05472 13.7321 7.50919 11.9537 7.60811 10.1516C7.68314 8.3741 9.10092 7.22371 10.8438 7.53151C11.3448 7.62081 11.8513 7.67672 12.3597 7.69887C14.193 7.77967 15.4627 6.92938 16.2476 5.29999C16.3861 5.01335 16.5092 4.72287 16.6323 4.42085C16.9805 3.52054 17.4441 2.71258 18.5368 2.65487C19.8064 2.58946 20.7895 3.2493 21.6667 4.0688C21.9899 4.37083 21.7802 4.76135 21.5801 5.03067C20.4578 6.50953 19.7124 8.23939 19.4082 10.0708C19.3024 10.7537 18.8484 10.8172 18.254 10.6075C16.9548 10.1212 15.5201 10.1418 14.2353 10.6653C12.9118 11.1943 12.3732 12.3004 12.7406 13.6701C13.0638 14.8801 13.8814 15.7054 14.8375 16.4345C16.7612 17.8985 18.9138 18.9123 21.1607 19.7548C21.3993 19.8433 21.8321 19.8203 21.7783 20.2165C21.7244 20.6128 21.33 20.482 21.0665 20.4936C20.6125 20.5166 20.1643 20.5013 19.718 20.5013Z" fill="white"/>
<path d="M21.8687 25.7777C20.0989 29.8772 16.9305 32.2491 12.6348 33.186C10.8733 33.5869 9.02652 33.3475 7.42537 32.5108C5.84022 31.7009 5.38622 29.933 6.38464 28.4709C6.67291 28.0509 6.9338 27.6126 7.16567 27.159C7.99864 25.5257 7.74279 24.0156 6.58855 22.6267C6.38464 22.3824 6.16726 22.1477 5.94603 21.9207C5.2708 21.2301 4.72639 20.474 5.12845 19.4545C5.59976 18.2752 6.60779 17.6558 7.71778 17.1979C8.12753 17.0286 8.39493 17.3807 8.55844 17.675C9.43995 19.3078 10.7048 20.702 12.2443 21.7379C12.8214 22.1227 12.6925 22.5574 12.2578 23.0056C11.2757 23.9856 10.6988 25.2995 10.6418 26.6857C10.5764 28.1093 11.3594 29.0577 12.7579 29.2924C13.993 29.5001 15.0837 29.1 16.1418 28.5229C18.2713 27.3802 20.0873 25.8412 21.786 24.1445C21.9649 23.9656 22.1245 23.5674 22.4612 23.7751C22.7978 23.9829 22.517 24.2926 22.4189 24.5446C22.2534 24.964 22.0553 25.3661 21.8687 25.7777Z" fill="white"/>
<path d="M26.2301 20.9801C26.1339 20.6588 26.3648 20.5164 26.5514 20.3452C28.6192 18.4309 31.2853 17.2905 34.0979 17.1173C36.9105 16.9441 39.6964 17.7488 41.9835 19.3949C43.2743 20.326 43.9938 21.5899 44.0399 23.2C44.0669 24.0849 43.6898 24.739 42.8684 25.1045C42.549 25.2488 42.2259 25.3854 41.9065 25.5374C39.6269 26.6474 38.8843 28.1863 39.4057 30.6852C39.5125 31.1176 39.5807 31.5586 39.6096 32.003C39.6407 32.357 39.56 32.7119 39.3788 33.0177C39.1976 33.3235 38.9251 33.5647 38.5996 33.7074C37.7266 34.1109 36.7657 34.2869 35.8064 34.2191C35.187 34.1807 34.8445 33.9498 34.9619 33.1745C35.21 31.5278 34.8176 29.9446 34.2443 28.4037C33.7595 27.0994 33.7595 27.0937 35.0234 26.6281C35.9612 26.3018 36.8078 25.7572 37.4935 25.0391C38.9247 23.5001 38.59 21.6553 36.7067 20.7184C35.564 20.1413 34.3386 20.0028 33.0805 20.022C31.0692 20.0234 29.0677 20.3017 27.1323 20.8492C26.8515 20.9339 26.561 21.1705 26.2301 20.9801Z" fill="white"/>
<path d="M25.2776 23.125C26.5126 23.4059 27.3937 24.1369 28.1862 24.941C31.7951 28.5961 32.9494 32.8937 31.3277 37.8299C30.841 39.3112 29.7983 40.3 28.3209 40.8156C27.4341 41.1253 26.6934 40.8713 26.0663 40.2154C25.8912 40.023 25.7393 39.8306 25.5757 39.6286C23.7559 37.4779 22.0342 37.1566 19.6006 38.5283C18.7523 39.0073 17.8693 39.5517 16.9421 38.8534C15.909 38.0666 15.4416 36.9027 15.3011 35.6234C15.2588 35.2252 15.5377 35.0829 15.9033 35.0463C17.7731 34.8174 19.3467 33.9382 20.7568 32.7513C21.4282 32.1877 21.911 32.2434 22.3997 32.9668C23.0253 33.8999 23.8959 34.6427 24.9159 35.1136C26.7877 35.9716 28.5056 34.9925 28.7153 32.936C28.9711 30.4448 28.0573 28.2402 26.9647 26.0952C26.4491 25.0757 25.8431 24.1119 25.2776 23.125Z" fill="white"/>
<path d="M3.56466 29.081C5.53337 29.081 7.12932 27.485 7.12932 25.5163C7.12932 23.5476 5.53337 21.9517 3.56466 21.9517C1.59595 21.9517 0 23.5476 0 25.5163C0 27.485 1.59595 29.081 3.56466 29.081Z" fill="white"/>
</svg>
