<svg width="27" height="20" viewBox="0 0 27 20" fill="none" xmlns="http://www.w3.org/2000/svg">
<path d="M22.8183 1.71278C22.8183 1.71278 20.591 0.219529 17.0649 0L16.5755 1.39492C16.5801 1.38578 15.0091 1.15024 14.9084 1.14109C14.0212 1.0542 13.0722 1.06334 12.1826 1.13195C12.0774 1.14109 10.5064 1.39264 10.5064 1.39492L10.0171 0C6.49087 0.219529 4.26357 1.71278 4.26357 1.71278C-1.00055 9.84221 0.419526 16.5241 0.419526 16.5241C2.18262 18.3855 7.25008 20 7.25008 20L8.59698 17.6492L6.44285 16.6705L6.76071 16.0348C8.61299 16.9609 10.7328 17.4686 12.8 17.5783C14.6477 17.6767 16.5366 17.3931 18.2974 16.842C18.6427 16.7345 18.9857 16.6133 19.3242 16.4784C19.4202 16.4395 20.296 16.0073 20.3212 16.0325L20.6391 16.6682L18.4849 17.6469L19.8318 19.9977C19.8318 19.9977 24.8993 18.381 26.6624 16.5218C26.6624 16.5264 28.0825 9.84221 22.8183 1.71278ZM9.15952 13.5147C7.83778 13.5147 6.76528 12.3485 6.76528 10.9078C6.76528 9.46719 7.83778 8.30094 9.15952 8.30094C10.4813 8.30094 11.5538 9.46947 11.5538 10.9078C11.5538 12.3462 10.4813 13.5147 9.15952 13.5147ZM17.9224 13.5147C16.6006 13.5147 15.5281 12.3485 15.5281 10.9078C15.5281 9.46719 16.6006 8.30094 17.9224 8.30094C19.2441 8.30094 20.3166 9.46947 20.3166 10.9078C20.3143 12.3462 19.2441 13.5147 17.9224 13.5147Z" fill="#F5F5F9"/>
</svg>
