<svg width="215" height="40" viewBox="0 0 215 40" fill="none" xmlns="http://www.w3.org/2000/svg">
<path d="M55.4214 31.9255V7.83423H59.5883V17.9533H69.0838V7.83423H73.2469V31.9255H69.0838V21.7368H59.5883V31.9255H55.4214Z" fill="white"/>
<path d="M83.4008 32.4056C82.2893 32.4167 81.1879 32.1951 80.1672 31.755C79.2472 31.3662 78.4544 30.7276 77.8785 29.9117C77.2933 29.0386 76.9979 28.0034 77.0343 26.953C76.9977 25.9243 77.2938 24.9112 77.8785 24.0641C78.4674 23.2627 79.2738 22.6472 80.202 22.2904C81.2766 21.8729 82.4224 21.669 83.5751 21.6902H88.4932V20.6717C88.5093 20.2709 88.4445 19.871 88.3028 19.4958C88.1611 19.1206 87.9453 18.7777 87.6684 18.4876C87.1185 17.926 86.2549 17.6434 85.0854 17.6434C83.9158 17.6434 83.0716 17.9144 82.4869 18.4527C81.8888 19.0051 81.482 19.7334 81.3251 20.5323L77.6771 19.3279C77.9522 18.4336 78.4024 17.603 79.0015 16.8843C79.6628 16.108 80.4972 15.4979 81.4374 15.1029C82.6162 14.6218 83.8824 14.3923 85.1551 14.4291C87.3831 14.4291 89.1322 14.9855 90.4024 16.0982C91.6726 17.2109 92.309 18.8232 92.3116 20.935V27.623C92.3116 28.3123 92.633 28.657 93.2759 28.657H94.7203V31.9254H91.9359C91.2074 31.957 90.49 31.7383 89.9028 31.3058C89.6489 31.1061 89.4462 30.8488 89.3115 30.5552C89.1768 30.2616 89.114 29.9401 89.1283 29.6174V29.5515H88.5436C88.3461 29.9645 88.1032 30.3541 87.8194 30.7133C87.4063 31.2276 86.8748 31.6341 86.2704 31.8983C85.3627 32.276 84.383 32.4492 83.4008 32.4056ZM84.0552 29.172C85.2253 29.2211 86.3698 28.8207 87.254 28.0528C87.6665 27.6712 87.991 27.2044 88.205 26.6848C88.419 26.1652 88.5174 25.6053 88.4932 25.0438V24.6992H83.8113C83.083 24.665 82.362 24.8571 81.7472 25.2491C81.4915 25.4302 81.2862 25.6736 81.1506 25.9561C81.0151 26.2387 80.9539 26.5511 80.9727 26.864C80.9646 27.1878 81.035 27.5087 81.178 27.7994C81.321 28.0901 81.5322 28.3418 81.7937 28.533C82.4558 28.991 83.2514 29.2158 84.0552 29.172Z" fill="white"/>
<path d="M104.875 32.4056C102.672 32.4056 100.865 31.9241 99.453 30.9612C98.742 30.4811 98.1422 29.8542 97.6939 29.1227C97.2457 28.3912 96.9594 27.5722 96.8545 26.7207L100.502 25.7913C100.608 26.5497 100.904 27.269 101.362 27.8825C101.766 28.3796 102.303 28.7506 102.911 28.9513C103.549 29.1621 104.218 29.2667 104.89 29.2611C105.967 29.2611 106.776 29.0636 107.314 28.6763C107.566 28.5154 107.773 28.2931 107.915 28.0302C108.058 27.7674 108.131 27.4727 108.128 27.1738C108.142 26.8948 108.077 26.6175 107.94 26.3742C107.802 26.1308 107.599 25.9314 107.353 25.799C106.614 25.4191 105.819 25.1577 104.999 25.0245L103.93 24.8502C102.835 24.643 101.763 24.3264 100.731 23.9053C99.8336 23.5511 99.036 22.9835 98.4074 22.2517C97.803 21.497 97.4909 20.5497 97.5283 19.5835C97.4933 18.8439 97.6436 18.1073 97.9655 17.4404C98.2874 16.7736 98.7707 16.1978 99.3717 15.7652C100.595 14.8706 102.21 14.4214 104.205 14.4214C106.11 14.4214 107.682 14.8461 108.921 15.6955C110.119 16.4938 110.977 17.7082 111.33 19.1033L107.682 20.2031C107.634 19.7976 107.502 19.4065 107.294 19.0546C107.087 18.7026 106.809 18.3975 106.478 18.1584C105.796 17.7386 105.005 17.5285 104.205 17.5543C103.469 17.5113 102.735 17.6778 102.09 18.0345C101.856 18.178 101.664 18.3813 101.534 18.6236C101.404 18.8659 101.34 19.1384 101.351 19.4131C101.339 19.6852 101.404 19.9551 101.537 20.1925C101.67 20.4299 101.867 20.6253 102.106 20.7569C102.736 21.0971 103.424 21.3176 104.135 21.4075L105.204 21.6166C106.368 21.8195 107.513 22.1188 108.627 22.5112C109.56 22.8206 110.396 23.3663 111.055 24.0951C111.686 24.8816 112.004 25.8729 111.95 26.8795C111.95 28.6505 111.312 30.0098 110.037 30.9573C108.761 31.9048 107.041 32.3876 104.875 32.4056Z" fill="white"/>
<path d="M115.919 31.9255V7.83423H119.877V17.1594H120.461C120.688 16.7217 120.991 16.3282 121.356 15.9976C121.833 15.5723 122.39 15.2459 122.994 15.0372C123.819 14.7567 124.687 14.6255 125.558 14.65C126.777 14.6243 127.981 14.9265 129.043 15.5252C130.048 16.104 130.867 16.9587 131.402 17.9881C131.989 19.1487 132.279 20.4367 132.246 21.7368V31.9255H128.265V22.0466C128.265 20.6718 127.924 19.6456 127.25 18.9485C126.576 18.2515 125.612 17.9339 124.373 17.9339C123.753 17.9041 123.134 18.0139 122.563 18.2552C121.991 18.4965 121.481 18.8631 121.069 19.328C120.269 20.2575 119.868 21.5819 119.865 23.3013V31.9255H115.919Z" fill="white"/>
<path d="M136.947 31.9255V7.83423H144.692L149.374 29.1334H149.951L154.664 7.83423H162.374V31.9255H158.385V10.8432H157.801L153.119 31.9255H146.237L141.559 10.8432H140.974V31.9255H136.947Z" fill="white"/>
<path d="M169.26 12.7563C168.579 12.7674 167.92 12.5149 167.42 12.0515C167.163 11.8142 166.96 11.5236 166.826 11.1999C166.692 10.8761 166.631 10.5271 166.646 10.1772C166.631 9.82665 166.692 9.47699 166.826 9.1526C166.96 8.82822 167.162 8.53691 167.42 8.299C167.933 7.84493 168.594 7.59424 169.279 7.59424C169.964 7.59424 170.625 7.84493 171.138 8.299C171.386 8.5428 171.58 8.83597 171.707 9.15952C171.835 9.48308 171.893 9.82979 171.878 10.1772C171.893 10.524 171.834 10.87 171.707 11.1929C171.58 11.5158 171.386 11.8083 171.138 12.0515C170.63 12.5262 169.955 12.7797 169.26 12.7563ZM167.3 31.9256V14.925H171.25V31.9256H167.3Z" fill="white"/>
<path d="M176.285 31.9254V14.9248H180.157V17.2987H180.742C181.125 16.5683 181.685 15.9462 182.372 15.4902C183.147 14.9171 184.328 14.6305 185.916 14.6305C187.137 14.6059 188.342 14.9152 189.401 15.5251C190.403 16.1141 191.219 16.9729 191.756 18.0035C192.343 19.1641 192.633 20.4521 192.6 21.7522V31.9254H188.634V22.0465C188.634 20.673 188.296 19.6403 187.62 18.9484C186.943 18.2565 185.985 17.9183 184.746 17.9338C184.126 17.9032 183.507 18.0126 182.936 18.2539C182.364 18.4953 181.853 18.8624 181.443 19.328C180.637 20.2574 180.236 21.5818 180.239 23.3012V31.9254H176.285Z" fill="white"/>
<path d="M204.396 32.4057C203.038 32.4162 201.702 32.0661 200.523 31.3911C199.307 30.6899 198.316 29.657 197.665 28.4131C196.919 26.957 196.552 25.3358 196.6 23.7002V23.1503C196.553 21.5134 196.919 19.8911 197.665 18.4335C198.313 17.1951 199.297 16.1644 200.504 15.4593C201.682 14.7823 203.018 14.4308 204.376 14.4408C205.286 14.4228 206.193 14.5536 207.06 14.8281C207.708 15.0321 208.31 15.3595 208.834 15.7924C209.256 16.1521 209.611 16.5834 209.883 17.0665H210.468V7.83423H214.391V31.9255H210.518V29.6872H209.976C209.493 30.4454 208.846 31.0858 208.083 31.5615C207.231 32.1424 206.003 32.4057 204.396 32.4057ZM205.558 28.9669C206.212 28.9863 206.863 28.8728 207.472 28.6332C208.081 28.3935 208.635 28.0328 209.101 27.5728C210.043 26.6433 210.515 25.3176 210.515 23.5956V23.2355C210.515 21.4928 210.05 20.1632 209.12 19.2467C208.65 18.7882 208.092 18.4296 207.48 18.1927C206.868 17.9557 206.214 17.8453 205.558 17.8681C204.902 17.8497 204.249 17.9622 203.638 18.1989C203.026 18.4356 202.467 18.7918 201.995 19.2467C201.042 20.1658 200.567 21.4954 200.57 23.2355V23.5801C200.57 25.3021 201.045 26.6278 201.995 27.5573C202.465 28.0203 203.023 28.3838 203.636 28.6261C204.25 28.8683 204.906 28.9842 205.565 28.9669H205.558Z" fill="white"/>
<path opacity="0.3" d="M25.3084 0H15.627V9.76277H25.3084V0Z" fill="white"/>
<path d="M25.3084 15.1575H15.627V24.8389H25.3084V15.1575Z" fill="white"/>
<path d="M10.2325 30.2371H0.469727V39.9998H10.2325V30.2371Z" fill="white"/>
<path d="M40.4698 0H30.707V9.76277H40.4698V0Z" fill="white"/>
<path opacity="0.3" d="M25.3084 30.2371H15.627V39.9998H25.3084V30.2371Z" fill="white"/>
<path d="M10.2325 0H0.469727V24.8426H10.2325V0Z" fill="white"/>
<path d="M40.4698 15.1575H30.707V40.0001H40.4698V15.1575Z" fill="white"/>
<path d="M30.7104 9.76294H25.312V15.1613H30.7104V9.76294Z" fill="white"/>
<path d="M30.7104 9.76294H25.312V15.1613H30.7104V9.76294Z" fill="white"/>
<path d="M30.7104 9.76294H25.312V15.1613H30.7104V9.76294Z" fill="white"/>
<path d="M15.6308 9.76294H10.2324V15.1613H15.6308V9.76294Z" fill="white"/>
<path d="M15.6308 9.76294H10.2324V15.1613H15.6308V9.76294Z" fill="white"/>
<path d="M15.6308 9.76294H10.2324V15.1613H15.6308V9.76294Z" fill="white"/>
</svg>
